Prueba Machine Learning : Ramon Yañez, Patricio Zapata
…
# Obtener componentes principales para cada observacion
componentes_principales <- as_tibble(model_pca$x[,1:2]) 
componentes_principales

## # A tibble: 178 x 2
##      PC1    PC2
##    <dbl>  <dbl>
##  1 -3.31  1.44 
##  2 -2.20 -0.332
##  3 -2.51  1.03 
##  4 -3.75  2.75 
##  5 -1.01  0.867
##  6 -3.04  2.12 
##  7 -2.44  1.17 
##  8 -2.05  1.60 
##  9 -2.50  0.915
## 10 -2.75  0.787
## # ... with 168 more rows
…
